﻿"Hersteller-Teilenummer","Hersteller","Digi-Key Teilenummer","Menge","Stückpreis","Gesamtpreis"
"3020-16-0300-00","CNC Tech","1175-1624-ND","1","0,65000","0,65 €"
"CL21A106KPFNNNE","Samsung Electro-Mechanics","1276-1052-1-ND","2","0,12000","0,24 €"
"CL31A106KOHNNNE","Samsung Electro-Mechanics","1276-1137-1-ND","4","0,25000","1,00 €"
"CL10C200JB8NNNC","Samsung Electro-Mechanics","1276-1187-1-ND","1","0,09000","0,09 €"
"CL05C330JB5NNNC","Samsung Electro-Mechanics","1276-1272-1-ND","1","0,09000","0,09 €"
"CL10B332KB8NNNC","Samsung Electro-Mechanics","1276-1758-1-ND","1","0,09000","0,09 €"
"CL10A104KA8NNNC","Samsung Electro-Mechanics","1276-1857-1-ND","7","0,09000","0,63 €"
"CL21A105KBCLNNC","Samsung Electro-Mechanics","1276-2396-1-ND","1","0,15000","0,15 €"
"CL21B104MBCNNNC","Samsung Electro-Mechanics","1276-2450-1-ND","9","0,09000","0,81 €"
"0603N150J500CT","Walsin Technology Corporation","1292-1487-1-ND","1","0,09000","0,09 €"
"SIM8060-6-0-14-00-A","GCT","2073-SIM8060-6-0-14-00-ACT-ND","1","1,26000","1,26 €"
"SN74AVC4T245DR","Texas Instruments","296-17930-1-ND","1","0,94000","0,94 €"
"RC0603FR-0722KL","Yageo","311-22.0KHRCT-ND","1","0,09000","0,09 €"
"RC0805FR-0727KL","Yageo","311-27.0KCRCT-ND","1","0,09000","0,09 €"
"RC0805FR-074K7L","Yageo","311-4.70KCRCT-ND","1","0,09000","0,09 €"
"RC1206FR-0747RL","Yageo","311-47.0FRCT-ND","1","0,09000","0,09 €"
"RC0805FR-07470RL","Yageo","311-470CRCT-ND","1","0,09000","0,09 €"
"SI-60024-F","Stewart Connector","380-1117-ND","1","4,10000","4,10 €"
"C0603C560J5GACTU","KEMET","399-1057-1-ND","1","0,09000","0,09 €"
"C0603C470K3RAC7867","KEMET","399-17592-1-ND","4","0,22000","0,88 €"
"T520D337M006ATE045","KEMET","399-4055-1-ND","4","1,16000","4,64 €"
"T520B107M006ATE015","KEMET","399-5306-1-ND","1","1,32000","1,32 €"
"C1608X5R1H103M080AA","TDK Corporation","445-14148-1-ND","1","0,00000","0,00 €"
"SPM4012T-2R2M-LR","TDK Corporation","445-174461-1-ND","1","1,35000","1,35 €"
"LQG15HS68NJ02D","Murata Electronics North America","490-2633-1-ND","1","0,09000","0,09 €"
"GRM1555C1H270JA01D","Murata Electronics North America","490-5869-1-ND","1","0,09000","0,09 €"
"LMK325BJ476MM-T","Taiyo Yuden","587-1383-1-ND","2","0,91000","1,82 €"
"10103594-0001LF","Amphenol ICC (FCI)","609-4050-1-ND","2","0,69000","1,38 €"
"SARA-G340-02S","U-Blox America Inc.","672-1206-1-ND","1","18,90000","18,90 €"
"614004184726","Wurth Electronics Inc.","732-10010-ND","1","1,29000","1,29 €"
"151031SS06000","Wurth Electronics Inc.","732-5006-ND","2","0,16000","0,32 €"
"74279220181","Wurth Electronics Inc.","732-6123-1-ND","4","0,30000","1,20 €"
"TFBS4650-TR1","Vishay Semiconductor Opto Division","751-1062-1-ND","1","4,15000","4,15 €"
"M50-3602042","Harwin Inc.","952-1393-ND","2","2,92000","5,84 €"
"M50-3530442","Harwin Inc.","952-3600-ND","1","0,14000","0,14 €"
"CRG0805F68K","TE Connectivity Passive Product","A126382CT-ND","4","0,09000","0,36 €"
"CRGCQ0603F5K6","TE Connectivity Passive Product","A129697CT-ND","1","0,09000","0,09 €"
"BD9D321EFJ-E2","Rohm Semiconductor","BD9D321EFJ-E2CT-ND","1","0,61000","0,61 €"
"BSS138-7-F","Diodes Incorporated","BSS138-FDICT-ND","2","0,18000","0,36 €"
"MD-80SM","CUI Inc.","CP-2280-ND","1","2,22000","2,22 €"
"U.FL-R-SMT-1(10)","Hirose Electric Co Ltd","H11891CT-ND","1","1,17000","1,17 €"
"DM3AT-SF-PEJM5","Hirose Electric Co Ltd","HR1964CT-ND","1","2,39000","2,39 €"
"LP38501ATJ-ADJ/NOPB","Texas Instruments","LP38501ATJ-ADJ/NOPBCT-ND","1","2,17000","2,17 €"
"MIC2025-2YM-TR","Microchip Technology","MIC2025-2YM-CT-ND","1","0,75000","0,75 €"
"EZJ-P1V180JM","Panasonic Electronic Components","P122051CT-ND","6","0,48000","2,88 €"
"RMCF0402FT10K0","Stackpole Electronics Inc","RMCF0402FT10K0CT-ND","1","0,09000","0,09 €"
"RMCF0603FT68K0","Stackpole Electronics Inc","RMCF0603FT68K0CT-ND","1","0,09000","0,09 €"
"RMCF0805FT100K","Stackpole Electronics Inc","RMCF0805FT100KCT-ND","10","0,02400","0,24 €"
"RMCF0805FT10K0","Stackpole Electronics Inc","RMCF0805FT10K0CT-ND","8","0,09000","0,72 €"
"RMCF0805FT200K","Stackpole Electronics Inc","RMCF0805FT200KCT-ND","1","0,09000","0,09 €"
"RMCF1206FT39R0","Stackpole Electronics Inc","RMCF1206FT39R0CT-ND","1","0,09000","0,09 €"
"RNCP0805FTD1K00","Stackpole Electronics Inc","RNCP0805FTD1K00CT-ND","1","0,09000","0,09 €"
"RNCP1206FTD1K00","Stackpole Electronics Inc","RNCP1206FTD1K00CT-ND","1","0,09000","0,09 €"
"PPTC051LGBN-RC","Sullins Connector Solutions","S5441-ND","1","0,57000","0,57 €"
"SBH21-NBPN-D07-ST-BK","Sullins Connector Solutions","S9019-ND","1","0,87000","0,87 €"
"TBC847B,LM","Toshiba Semiconductor and Storage","TBC847BLMCT-ND","1","0,16000","0,16 €"